<?xml version="1.0" encoding="UTF-8"?>
<!DOCTYPE svg PUBLIC "-//W3C//DTD SVG 1.1//EN" "http://www.w3.org/Graphics/SVG/1.1/DTD/svg11.dtd">
<!-- Creator: CorelDRAW -->
<svg xmlns="http://www.w3.org/2000/svg" xml:space="preserve" width="155px" height="37px" style="shape-rendering:geometricPrecision; text-rendering:geometricPrecision; image-rendering:optimizeQuality; fill-rule:evenodd; clip-rule:evenodd"
viewBox="0 0 155 36.9073"
 xmlns:xlink="http://www.w3.org/1999/xlink">
 <defs>
  <style type="text/css">
   <![CDATA[
    .str0 {stroke:black;stroke-width:0.565508}
    .str1 {stroke:#FF9800;stroke-width:0.997556}
    .fil2 {fill:none}
    .fil0 {fill:black}
    .fil3 {fill:#FF9800}
    .fil1 {fill:white}
    .fil4 {fill:white;fill-rule:nonzero}
   ]]>
  </style>
 </defs>
 <g id="Layer_x0020_1">
  <metadata id="CorelCorpID_0Corel-Layer"/>
  <rect class="fil0 str0" width="155" height="36.9073"/>
  <g id="_221818208">
   <g>
    <path id="_221818616" class="fil1" d="M87.1852 9.14058c1.24892,-1.24892 3.27372,-1.24892 4.52265,0 1.24892,1.24892 1.24892,3.27401 0,4.52293l-12.0849 12.0849 -4.51275 -4.53283 12.075 -12.075z"/>
    <path id="_221818544" class="fil1" d="M76.6433 19.6862l4.52293 4.52293 -2.26147 2.26147c-1.24892,1.24892 -3.27401,1.24892 -4.52293,0 -1.24892,-1.24892 -1.24892,-3.27401 0,-4.52293l2.26147 -2.26147z"/>
   </g>
   <g>
    <path id="_221818376" class="fil1" d="M66.0917 9.14058c-1.24892,-1.24892 -3.27401,-1.24892 -4.52293,0 -1.24892,1.24892 -1.24892,3.27401 0,4.52293l12.0849 12.0849 4.51303 -4.53283 -12.075 -12.075z"/>
    <path id="_221818352" class="fil1" d="M76.6334 19.6862l-4.52265 4.52293 2.26118 2.26147c1.24921,1.24892 3.27401,1.24892 4.52293,0 1.24892,-1.24892 1.24892,-3.27401 0,-4.52293l-2.26147 -2.26147z"/>
   </g>
  </g>
  <path class="fil2 str1" d="M76.686 18.9996l-10.0706 -10.0564c-0.0760608,-0.0831296 -0.155797,-0.162866 -0.238927,-0.238927l-0.00113102 -0.00113102 0 0c-0.653727,-0.596045 -1.52291,-0.959384 -2.47721,-0.959384 -2.0313,0 -3.67778,1.64676 -3.67778,3.67778 0,1.09369 0.477288,2.07541 1.23507,2.74922l12.4005 12.3727c0.674651,0.799345 1.68408,1.30745 2.81199,1.30745l0.0127239 -0.000282754 0.0101791 0.000282754c0.954011,0 1.82348,-0.363621 2.47721,-0.959667l0 0 0.00113102 -0.00113102c0.0831296,-0.075778 0.162866,-0.155515 0.238927,-0.238644l12.5189 -12.4909 -0.00565508 -0.00593783c0.747036,-0.673237 1.21697,-1.64817 1.21697,-2.7331 0,-2.0313 -1.64676,-3.67778 -3.67778,-3.67778 -1.12819,0 -2.13734,0.507826 -2.81199,1.30745l-9.96255 9.94841z"/>
  <g id="_221817704">
   <path id="_221817944" class="fil3" d="M54.14 10.2665l-6.39617 0.00706885 0.0200755 20.2698c0,1.76636 1.43187,3.19823 3.19795,3.19823 1.76636,0 3.19823,-1.43187 3.19823,-3.19823l-0.0200755 -20.2768z"/>
   <path id="_221817824" class="fil3" d="M61.6483 14.5847l-0.394724 -6.39646 -23.0639 0c-1.76636,0 -3.19823,1.43187 -3.19823,3.19823 0,1.76636 1.43187,3.19823 3.19823,3.19823l23.4587 0z"/>
   <path id="_221817752" class="fil3" d="M60.5766 8.18827l0 6.39646 3.19795 0c1.76636,0 3.19823,-1.43187 3.19823,-3.19823 0,-1.76636 -1.43187,-3.19823 -3.19823,-3.19823l-3.19795 0z"/>
  </g>
  <g id="_221817368">
   <path id="_221817608" class="fil1" d="M38.2357 8.18261c1.76608,0 3.19795,-1.43187 3.19795,-3.19823 0,-1.76636 -1.43187,-3.19823 -3.19795,-3.19823 -1.76636,0 -3.19823,1.43187 -3.19823,3.19823 0,1.76636 1.43187,3.19823 3.19823,3.19823z"/>
   <path id="_221817488" class="fil1" d="M41.4336 11.3806c0,-1.76608 -1.43187,-3.19795 -3.19795,-3.19795 -1.76636,0 -3.19823,1.43187 -3.19823,3.19795l0 17.0908 6.39617 -0.0141377 0 -17.0766z"/>
   <path id="_221817416" class="fil1" d="M41.4336 27.3714l-6.39617 0 0 3.19795c0,1.76636 1.43187,3.19823 3.19823,3.19823 1.76608,0 3.19795,-1.43187 3.19795,-3.19823l0 -3.19795z"/>
  </g>
  <path class="fil4" d="M70.9919 31.4134l-1.97843 0 0 0.779835 1.76184 0c0.247975,0 0.417627,0.0460889 0.509805,0.137136 0.0910467,0.0921778 0.137136,0.265506 0.137136,0.521681l0 0.31414c0,0.258154 -0.0449579,0.432331 -0.134308,0.524508 -0.0904812,0.0910467 -0.260982,0.137136 -0.512633,0.137136l-1.63206 0c-0.254478,0 -0.426676,-0.0460889 -0.518853,-0.139115 -0.0910467,-0.091895 -0.137136,-0.266071 -0.137136,-0.522529l0 -0.0766263 0.433179 -0.100095 0 0.449296 2.08135 0 0 -0.841193 -1.75562 0c-0.25363,0 -0.425827,-0.0458061 -0.516309,-0.138832 -0.0893502,-0.0921778 -0.134308,-0.266354 -0.134308,-0.521681l0 -0.243734c0,-0.255327 0.0449579,-0.429503 0.134308,-0.521681 0.0904812,-0.093026 0.262678,-0.139115 0.516309,-0.139115l1.48926 0c0.248258,0 0.419607,0.0452406 0.513481,0.136287 0.0950053,0.0904812 0.14166,0.250237 0.14166,0.477571l0 0.0576818 -0.398683 0.113667 0 -0.404338z"/>
  <polygon id="1" class="fil4" points="72.8348,33.8278 72.8348,31.0325 73.3034,31.0325 73.3034,32.1743 75.5055,32.1743 75.5055,31.0325 75.9711,31.0325 75.9711,33.8278 75.5055,33.8278 75.5055,32.5605 73.3034,32.5605 73.3034,33.8278 "/>
  <path id="12" class="fil4" d="M77.8512 33.4388l2.31321 0 0 -2.02537 -2.31321 0 0 2.02537zm-0.465696 -1.74459c0,-0.254478 0.0452406,-0.427807 0.136287,-0.521681 0.0913295,-0.093026 0.264658,-0.139963 0.519984,-0.139963l1.93234 0c0.251934,0 0.423282,0.0460889 0.514329,0.139115 0.0913295,0.0921778 0.136287,0.266354 0.136287,0.522529l0 1.47202c0,0.258154 -0.0449579,0.432331 -0.136287,0.524508 -0.0910467,0.0910467 -0.262396,0.137136 -0.514329,0.137136l-1.93234 0c-0.255327,0 -0.428655,-0.0469371 -0.519984,-0.139963 -0.0910467,-0.0938743 -0.136287,-0.267202 -0.136287,-0.521681l0 -1.47202z"/>
  <path id="123" class="fil4" d="M84.1125 31.3944l-1.60208 0 0 0.976632 1.60208 0c0.114515,0 0.193121,-0.0214893 0.236382,-0.0658816 0.0432613,-0.0441096 0.0650334,-0.119888 0.0650334,-0.227334l0 -0.389918c0,-0.107446 -0.021772,-0.183224 -0.0650334,-0.227617 -0.0432613,-0.0441096 -0.121867,-0.0658816 -0.236382,-0.0658816zm-2.07061 2.43338l0 -2.7953 2.2527 0c0.209521,0 0.361077,0.0424131 0.453254,0.12837 0.093026,0.0856744 0.138832,0.223658 0.138832,0.413386l0 0.62432c0,0.18888 -0.0458061,0.326015 -0.138832,0.41169 -0.0921778,0.0856744 -0.243734,0.128087 -0.453254,0.128087l-1.78418 0 0 1.08945 -0.468523 0z"/>
  <path class="fil2 str1" d="M41.9134 30.45c0,2.0313 -1.64676,3.67778 -3.67778,3.67778 -2.0313,0 -3.67806,-1.64648 -3.67806,-3.67778l0.000282754 -0.00254478 0 -19.0644 -0.000282754 -0.00254478c0,-1.37023 0.74958,-2.56514 1.8608,-3.19795 -1.11122,-0.632803 -1.8608,-1.828 -1.8608,-3.19823 0,-2.0313 1.64676,-3.67778 3.67806,-3.67778 2.03102,0 3.67778,1.64648 3.67778,3.67778 0,1.37023 -0.74958,2.56543 -1.8608,3.19823 1.11122,0.632803 1.8608,1.82772 1.8608,3.19795l0 0.00254478 0 19.0644 0 0.00254478z"/>
 </g>
</svg>
